{
  "succses": true,
  "loadModule": "news",
  "newsCount": 2,
  "news": [
    {
      "id": 1,
      "title": "Lorem ipsum dolor sit amet.",
      "url": "/news-2/",
      "date": "14 сентября 2017 г."
    },
    {
      "id": 2,
      "title": "Lorem ipsum dolor sit amet. Lorem ipsum dolor sit amet.",
      "url": "/news-2/",
      "date": "14 сентября 2017 г."
    },
    {
      "id": 3,
      "title": "Lorem ipsum dolor sit amet. Lorem ipsum dolor sit amet.",
      "url": "/news-3/",
      "date": "9 сентября 2017 г."
    },
    {
      "id": 4,
      "title": "Lorem ipsum dolor sit amet.",
      "url": "/news-4/",
      "date": "8 сентября 2017 г."
    }
  ]
}
